[
  {
    "orderNumber": 42,
    "shippingState": "shipped",
    "billingState": "open",
    "date": "june 16TH - 7:22PM",
    "cost": 86,
    "description": "Some lovely whiskies",
    "orderLines": [
      {
        "name": "Aberlour 10 Years 70CL",
        "category": "single-malt",
        "quantity": 2,
        "cost": 22
      },
      {
        "name": "Ardbeg 10 Years 70CL",
        "category": "single-malt",
        "quantity": 1,
        "cost": 42
      }
    ],
    "contactInformation": {
      "name" : "Willem Dekker",
      "phone": "+31 88 58 64 640",
      "email": "willem.dekker@luminis.eu"
    },
    "carrierInformation": {
      "carrier": "POST NL",
      "trackingId": "3SSDSFSD233SDS555"
    },
    "shippingAddress": {
      "street": "Kasteelweg 51",
      "city": "Rotterdam",
      "postCode": "3077 BN"
    },
    "billingAddress": {
      "street": "Herman de Manpark 37",
      "city": " Lopik",
      "postCode": "3411 ZN"
    }
  },
  {
    "orderNumber": 43,
    "shippingState": "delivered",
    "billingState": "paid",
    "date": "april 12TH - 3:22PM",
    "cost": 40,
    "description": "For the safety stock",
    "orderLines": [
      {
        "name": "Bowmore 12 Years 70CL",
        "category": "single-malt",
        "quantity": 2,
        "cost": 20
      }
    ],
    "contactInformation": {
      "name": "Willem Dekker",
      "phone": "+31 88 58 64 640",
      "email": "willem.dekker@luminis.eu"
    },
    "carrierInformation": {
      "carrier": "UPS",
      "trackingId": "AZX3355FD53"
    },
    "shippingAddress": {
      "street": "Kasteelweg 51",
      "city": "Rotterdam",
      "postCode": "3077 BN"
    },
    "billingAddress": {
      "street": "Herman de Manpark 37",
      "city": " Lopik",
      "postCode": "3411 ZN"
    }
  },
  {
    "orderNumber": 44,
    "shippingState": "delivered",
    "billingState": "paid",
    "date": "january 2ND - 9:15AM",
    "cost": 60,
    "description": "For cold winter nights",
    "orderLines": [
      {
        "name": "Amrut Indian 70CL",
        "category": "international",
        "quantity": 1,
        "cost": 20
      },
      {
        "name": "Hakushu - 12 Years Old",
        "category": "international",
        "quantity": 1,
        "cost": 20
      },
      {
        "name": "Glen Talloch 100CL",
        "category": "blends",
        "quantity": 1,
        "cost": 20
      }
    ],
    "contactInformation": {
      "name": "Willem Dekker",
      "phone": "+31 88 58 64 640",
      "email": "willem.dekker@luminis.eu"
    },
    "carrierInformation": {
      "carrier": "UPS",
      "trackingId": "AZX3355FD53"
    },
    "shippingAddress": {
      "street": "Kasteelweg 51",
      "city": "Rotterdam",
      "postCode": "3077 BN"
    },
    "billingAddress": {
      "street": "Herman de Manpark 37",
      "city": " Lopik",
      "postCode": "3411 ZN"
    }
  }
]
