[
  {
    "id": "1",
    "name": "Ladybank Single Malt",
    "brand": "Ladybank",
    "description": "Slechts 300 flessen worden elk jaar gemaakt van deze Whiskey uit Edinburgh (Schotland) en om er een te krijgen moet je lid zijn van de club. De prijs van het lidmaatschap? $4700 per jaar.",
    "cost": 4700.00,
    "available": 1,
    "category": "exclusive"
  },
  {
    "id": "2",
    "name": "Macallan 1947",
    "brand": "Macallan",
    "description": "Macallen Whiskey zullen we nog vaker tegen komen in deze lijst, maar dan nog wat ouder. Een 15 jaar oude Whiskey (want gebotteld in 1963), gerijpt in Sherry vaten. De whiskey heeft smaken van citrusfruit, chocolade en vanille, met notensmaak in de achtergrond, en een zware rooksmaak als nasmaak.",
    "cost": 6800.00,
    "available": 1,
    "category": "exclusive"
  },
  {
    "id": "3",
    "name": "Chivas Regal Royal Salute",
    "brand": "Chivas Regal",
    "description": "Gebottled in 1953 (21 jaar oud) een speciale blended whiskey met een rokerige aroma van anijs en rozijnen, speciaal voor de kroning van Queen Elizabeth II. 50 jaar later werd nog eenmaal 255 flessen gebottled, elke fles kost $10.000. De fles heeft een 24 karaats goud en zilver label.",
    "cost": 10000.00,
    "available": 1,
    "category": "exclusive"
  },
  {
    "id": "4",
    "name": "Macallan 1939",
    "brand": "Macallan",
    "description": "Een sterke Whiskey met een zachte aroma van toffee en gedroogd fruit. Voor het eerst gebottled in 1979.",
    "cost": 10125.00,
    "available": 1,
    "category": "exclusive"
  },
  {
    "id": "5",
    "name": "1955 Glenfarclas",
    "brand": "Glenfarclas",
    "description": "In 2005 gebottled en hiermee de oudste gebottlede Glenfarclas (50 jaar). “Spicy and silky with a sweet taste”.",
    "cost": 10878.00,
    "available": 1,
    "category": "exclusive"
  },
  {
    "id": "6",
    "name": "Dalmore 50 jaar oud",
    "brand": "Dalmore",
    "description": "Slechts 60 flessen zijn er gemaakt van deze single malt whiskey. Gebottled in 1978 en wordt door velen gezien als de beste 50 jaar oude Whiskeys ter wereld.",
    "cost": 11000.00,
    "available": 1,
    "category": "exclusive"
  },
  {
    "id": "7",
    "name": "Macallan Lalique Crystal Decanter",
    "brand": "Macallan",
    "description": "Nog een Whiskey uit de Macallan collectie (55 jaar). De fles is een copy van de flessen uit 1910. Er zijn slechts 420 flessen beschikbaar. De smaak wordt omgeschreven als “Exotic”, met een rokerige aroma.",
    "cost": 12500.00,
    "available": 1,
    "category": "exclusive"
  },
  {
    "id": "8",
    "name": "Glenfiddich Rare Collection 1937",
    "brand": "Glenfiddich",
    "description": "Slechts een fles is beschikbaar, en misschien is dit wel de oudste fles whiskey ter wereld. In 2006 werd de fles verkocht op een veiling voor $20.000",
    "cost": 20000.00,
    "available": 1,
    "category": "exclusive"
  },
  {
    "id": "9",
    "name": "Dalmore 62",
    "brand": "Dalmore",
    "description": "Een single Malt Whiskey gemaakt in 1943 uit vier Malts uit 1868, 1876, 1926 en 1939. In 2005 kocht een man een fles voor $58.000 en dronk deze in een avond op met 5 vrienden. De andere 11 overgebleven flessen bevinden zich in prive collecties.",
    "cost": 58000.00,
    "available": 1,
    "category": "exclusive"
  },
  {
    "id": "10",
    "name": "Macallan 1926",
    "brand": "Macallan",
    "description": "Gebottled in 1986 en nogmaals in 2002, de smaak is “Dry and concentrated”. In 2005 kocht een Zuid-koreaan een fles voor $75.000. Wil je niet gelijk een hele fles kopen? Dan kun je deze Whiskey proberen in het Borgata Hotel Casino & Spa in Atlantic city voor slechts $3300 per slok.",
    "cost": 75000.00,
    "available": 1,
    "category": "exclusive"
  },
  {
    "id": "11",
    "name": "Dalmore 64 Trinitas",
    "brand": "Dalmore",
    "description": "De naam Trinitas is gekozen omdat er slechts 3 flessen zijn gemaakt van deze bijzondere Whiskey. Het is een mix van exclusieve collecties, met onder andere 140 jaar gerijpte destillaat.",
    "cost": 160100.00,
    "available": 1,
    "category": "exclusive"
  },
  {
    "id": "12",
    "name": "The Macallan in Lalique, 1964",
    "brand": "Macallan",
    "description": "De allerduurste Whiskey is de oudste Whiskey van Macallan, 64 jaar oud. De Whiskey is verkocht op een veiling in november 2010 voor het goede doel.",
    "cost": 460000.00,
    "available": 1,
    "category": "exclusive"
  },
  {
    "id": "100",
    "name": "The Famous Grouse 100CL",
    "brand": "The Famous Grouse",
    "description": "The Famous Grouse is een geliefde whisky in Schotland, en staat bekend om zijn zachte en rijke smaak en gebruikt meer sherryvaten voor het rijpen van haar whisky’s dan andere blended whisky's. The Famous Grouse Blended Scotch Whisky bestaat uit een blend van onder andere The Macallan en Highland Park -twee van 's werelds meest gerespecteerde Single Malt Scotch Whisky's- en zoete grain whisky's voor het verkrijgen van de kenmerkende zachte smaak van The Famous Grouse.",
    "cost": 24.95,
    "available": 99,
    "category": "blends"
  },
  {
    "id": "101",
    "name": "Glen Talloch 100CL",
    "brand": "Glen Talloch",
    "description": "Glen Talloch is een blend met maar liefst 30% malt whisky's die minimaal 5 jaar gerijpt zijn. Samen met de beste graanwhisky's vormen ze een geweldige combinatie van kracht en finesse. Echt iets om even bij stil te staan met een mooi glas. Of eigenlijk... zitten.",
    "cost": 18.49,
    "available": 199,
    "category": "blends"
  },
  {
    "id": "102",
    "name": "Johnnie Walker Red Label 100CL",
    "brand": "Johnnie Walker",
    "description": "In 1906 wist Alexander Walker, de kleinzoon van John Walker een whisky te blenden met de kwaliteiten om uit te groeien tot één van de beste whisky’s ter wereld. Alexander was er in geslaagd om de Red Label zo te blenden dat de rijk en rokerige whisky perfect geschikt is om zowel ‘on the rocks’ als in de mix te drinken. De broer van Alexander, George Walker, doopte in 1909 de oorspronkelijk onder de naam Extra Special Highland Whisky gestarte whisky om tot Johnnie Walker Red Label. In dit jaar werd ook het beroemde logo “The striding man” ontworpen. Johnnie Walker Red Label is een klassieker onder de whisky’s. Red Label is een combinatie van kruidige, rokerige malts, zoals Talisker, met lichtere, zacht nasmakende granen.",
    "cost": 17.99,
    "available": 199,
    "category": "blends"
  },
  {
    "id": "103",
    "name": "William Lawson's 100CL",
    "brand": "William Lawson",
    "description": "Deze whisky is een blend met een milde en zachte smaak. Lekker om hem puur te drinken. Of mix hem met cola of Ginger Ale. En helemaal verrassend in een stoofpotje met kip! Zo kun je er de hele avond van genieten.",
    "cost": 22.49,
    "available": 199,
    "category": "blends"
  },
  {
    "id": "104",
    "name": "Grant's 100CL",
    "brand": "Grant's",
    "description": "Om deze Grant's Family Reserve te maken worden zo'n 25 verschillende malt en graanwhisky's samengevoegd ofwel 'geblend'. De graanwhisky komt van Girvin, die vacuüm gedistilleerd is op een lage temperatuur waardoor hij lichter en verfijnder wordt. Deze medium whisky is lekker in de cola. En als je hem puur drinkt proef je onder andere vanille en mout.",
    "cost": 19.99,
    "available": 199,
    "category": "blends"
  },
  {
    "id": "105",
    "name": "Ballantine's 100CL",
    "brand": "Ballantine's",
    "description": "Deze blend whisky vindt zijn oorsprong in 1827. Ballantine’s Finest is een complexe en zachte blend en bestaat uit meer dan 40 verschillende malt- en graanwhisky’s uit de vier regio’s van Schotland. Jim Murray, een van de meeste toonaangevende whisky-connaisseurs ter wereld, noemde Ballantine’s Finest “A major work of art”.",
    "cost": 23.99,
    "available": 199,
    "category": "blends"
  },
  {
    "id": "106",
    "name": "Chivas Regal 12 Years 70CL",
    "brand": "Chivas Regal",
    "description": "Chivas Regal 12 Year Old is een whisky met het kenmerkende karakter van de Speyside; rijk, luxueus en overvloedig. Een blend whisky van verschillende malt en graan whisky's. Zoals bij alle whisky’s van Chivas Regal wordt ook bij de 12 jaar oude Chivas Regal het hart gevormd door de single malt Strathisla. Een zachte whisky met een mooi rijk aroma.",
    "cost": 28.99,
    "available": 199,
    "category": "blends"
  },
  {
    "id": "107",
    "name": "Chivas Regal 18 Years 70CL",
    "brand": "Chivas Regal",
    "description": "Chivas Regal 18 Years is een luxe, zachte en rijke blend van malt- en graanwhiskies welke alle minimaal 18 jaar hebben gerijpt. Het hart van Chivas Regal wordt gevormd door de single malt Strathisla. Bijzonder aan Chivas Regal 18 Year Old is dat het huwelijk van zowel de malt- als de grainwhisky’s plaatsvindt op speciaal geselecteerde eikenhouten vaten. Dit maakt de whisky zeer verfijnd en toegankelijk. Het enigszins rokerige karakter geeft aan dat er ook invloed van de eilanden is.",
    "cost": 59.19,
    "available": 199,
    "category": "blends"
  },
  {
    "id": "108",
    "name": "Monkey Shoulder Blended Malt 70CL",
    "brand": "Monkey Shoulder",
    "description": "Monkey Shoulder is een whisky bestaande uit drie Single Malt Whisky’s uit de bakermat van Schotse whisky; Dufftown in de Speyside regio. Noem Monkey Shoulder een Triple Malt whisky, een vatted malt, een blended malt maar vooral geen blended whisky. Buiten de drie malts wordt er geen graanwhisky of iets anders toegevoegd. De naam Monkey Shoulder komt van de blessure die de medewerkers in de distilleerderij opliepen. Door het continue omscheppen van de gerst kregen ze een schouder blessure. Deze blessure werd een Monkey Shoulder genoemd. De whisky is zoet van smaak, rijk aan vanille.",
    "cost": 30.99,
    "available": 99,
    "category": "blends"
  },
  {
    "id": "200",
    "name": "Four Roses 100CL",
    "brand": "Four Roses",
    "description": "Four Roses -Kentucky Straight Bourbon- maakt gebruikt van 2 verschillende graanmengsels en 5 verschillende soorten gistculturen. Dit resulteert in 10 totaal verschillende Bourbons, welke aan de basis liggen van Four Roses. De Bourbon wordt gedistilleerd in de staat Kentucky en heeft tenminste 5 jaar op eikenhouten vaten doorgebracht. De term ‘straight’ geeft aan dat de bourbon minimaal 2 jaar gelagerd is op vaten van America White Oak. Een licht kruidige bourbon, drink hem puur of met een blokje ijs.",
    "cost": 19.99,
    "available": 199,
    "category": "bourbon"
  },
  {
    "id": "201",
    "name": "Jim Beam White 100CL",
    "brand": "Jim Beam",
    "description": "Jim Beam Original is een authentieke bourbon whiskey, gemaakt met minimaal de helft mais in plaats van graan. Deze bourbon is het werk van zeven generaties in één familiebedrijf. De smaak is zoet, met een rijk vanille karakter te danken aan de rijping in gebrande vaten van Amerikaans eikenhout. Jim Beam Original leent zich uitstekend om te mixen, zowel met cola als in een klassieke cocktail.",
    "cost": 23.99,
    "available": 199,
    "category": "bourbon"
  },
  {
    "id": "202",
    "name": "Woodford Reserve 70CL",
    "brand": "Woodford",
    "description": "Woodford Reserve (43,2% alcohol) is een Kentucky “small batch” Bourbon. De verschillende whiskeys uit de vaten worden door de master distiller handmatig geselecteerd van de vaten die hebben aangetoond garant te staan voor superieure rijping. Daarna worden de whiskyes samengevoegd om zo het onderscheidende smaak profiel te creëren. Daarnaast is Woodford is de officiële Bourbon van de beroemde Kentucky Derby en won het de vier meest prestigieuze tasting wedstrijden van de wereld.",
    "cost": 38.79,
    "available": 50,
    "category": "bourbon"
  },
  {
    "id": "203",
    "name": "Buffalo Trace 70CL",
    "brand": "Buffalo Trace",
    "description": "De Bufffalo Trace Distillery is een familiebedrijf met historie die terug gaat naar 1887 en ligt aan de Kentucky River te Frankfort Kentucky in de Verenigde Staten, bij de plek waar de buffels tijdens de buffeltrek de rivier overstaken. Buffalo Trace Kentucky Straight Bourbon Whiskey wordt gestookt door de meest onderscheiden distilleerderij ter wereld. Buffalo Trace Kentucky Straight Bourbon rijpt minimaal 8 jaar op vaten van de Amerikaanse Eik en hanteert het traditionele ‘rye recipee’ voor bourbon. Een toegankelijke bourbon whisky, mooi in balans tussen de zoete smaak, het licht rokerige, de kruiden en de zachtheid.",
    "cost": 23.99,
    "available": 199,
    "category": "bourbon"
  },
  {
    "id": "204",
    "name": "Pennypacker 70CL",
    "brand": "Pennypacker",
    "description": "De Penny Packer is een bourbon uit Kentucky USA. Dit betekent dat minimaal de helft van de grondstof mais is in plaats van graan. En die zoete smaak van het mais proef je duidelijk terug in deze bourbon.",
    "cost": 16.99,
    "available": 199,
    "category": "bourbon"
  },
  {
    "id": "205",
    "name": "Evan Williams Single Barrel 70CL",
    "brand": "Evan Williams",
    "description": "whiskey uit één enkel vat. Zorgvuldig selecteert de Master Distiller de barrel welke minimaal 10 jaar gelagerd is op de hogere etages van het Rickhouse. Hierdoor is de smaak zachter en de geur intenser. Iedere barrel is uniek en voldoet aan de strenge kwaliteitseisen die Evan Williams voor haar Single Barrel aanhoudt. Iedere fles is voorzien van het vatnummer, de datum waarop het vat is gevuld en de fles is gebotteld. Iedere fles is gebotteld op 43,3%, 86,6 proof.",
    "cost": 44.99,
    "available": 49,
    "category": "bourbon"
  },
  {
    "id": "206",
    "name": "Maker's Mark 70CL",
    "brand": "Maker's Mark",
    "description": "Dit is een premium bourbon whisky die wordt geproduceerd in kleine hoeveelheden van 19 vaten per batch. Naast mais wordt gebruik gemaakt van rode wintertarwe. De kenmerkende combinatie van rogge, tarwe en de zachte en rijke zoetige smaak maakt de Maker's Mark één van de meest bekende bourbons van de wereld. Met het rode wassen zegel dat handmatig wordt aangebracht.",
    "cost": 30.99,
    "available": 199,
    "category": "bourbon"
  },
  {
    "id": "300",
    "name": "Glenfiddich 12 Years 70CL",
    "brand": "Glenfiddich",
    "description": "De Glenfiddich distilleerderij is gelegen in de Schotse plaats Dufftown, in de Speyside regio en werd in 1886 opgericht door William Grant. Deze whisky is minimaal 12 jaar gerijpt in vaten van Amerikaans Eiken waar voorheen Bourbon in heeft gerijpt en vaten van Spaans eikenhout, waar voorheen sherry in heeft gerijpt. Na 12 jaar worden de vaten door de Malt Master geselecteerd en overgegoten in een houten 'marrying tun' waarin de whisky's met elkaar kunnen huwen om in enkele maanden een mooi gebalanceerd geheel te vormen.",
    "cost": 30.99,
    "available": 199,
    "category": "single-malt"
  },
  {
    "id": "301",
    "name": "Aberlour 10 Years 70CL",
    "brand": "Aberlour",
    "description": "De Aberlour Malt 10 YRS is een heerlijke single malt whisky met een toegankelijke smaak. Door zijn duidelijke sherrysmaak die een klein beetje kruidig is, is deze whisky zeer geschikt om te drinken als beginnende maltdrinker. Proberen dus, lekker hoor.",
    "cost": 27.49,
    "available": 199,
    "category": "single-malt"
  },
  {
    "id": "302",
    "name": "Talisker 10 Years 70CL",
    "brand": "Talisker",
    "description": "Talisker is de enige malt whisky die geproduceerd wordt op het eiland Skye. Hij vindt zijn oorsprong in 1830, de unieke opstelling van de ketels bezorgt Talisker zijn speciale karakter. De naam komt van het Noors “ Thalas Gair” wat “hellende rots” betekend. Een unieke smaak, rokerig, zoet en krachtig. Perfect te combineren met gerookte gerechten, zeevruchten of oesters. Drink hem puur of met ijs.",
    "cost": 39.99,
    "available": 199,
    "category": "single-malt"
  },
  {
    "id": "303",
    "name": "The Balvenie DoubleWood 12 Years 70CL",
    "brand": "The Balvenie",
    "description": "The Balvenie dankt zijn kwaliteit aan de vijf ambachten waarmee de whisky gemaakt wordt. Deze distilleerderij verbouwt zijn eigen gerst, mout op de eigen traditionele moutvloer, heeft kuipers in dienst heeft om de vaten te verzorgen en een kopersmid voor het onderhoud aan de ketels en de langstwerkende malt meester uit de industrie, David Stewart, die al meer dan 50 jaar de whisky's van The Balvenie samenstelt. De 1e rijping vindt plaats in Amerikaans eikenhout en wordt daarna overgegoten in Europese sherry vaten. De traditionele vaten maken de whisky zacht en soepel en voegen karakter toe, terwijl het Europese hout een diepe, fruitige volle smaak geeft aan de whisky.",
    "cost": 41.99,
    "available": 199,
    "category": "single-malt"
  },
  {
    "id": "304",
    "name": "Highland Park 12 Years 70CL",
    "brand": "Highland Park",
    "description": "Highland Park, opgericht in 1798 op de Orkney-eilanden, is de meest noordelijk gelegen Schotse whiskydistilleerderij. Highland Park mout de gerst op zijn eigen moutvloer en eest zijn groene mout met turf van eigen bodem. Aan het gebruik van deze lokale turf die heide bevat heeft Highland Park Single Malt zijn typerende smaak te danken. Zijn lichtzoete afdronk heeft de 12 jaar oude Highland Park te danken aan de heideturf van Orkney en een rijping in uitsluitend sherry vaten",
    "cost": 34.99,
    "available": 199,
    "category": "single-malt"
  },
  {
    "id": "305",
    "name": "Laphroaig 10 Years 70CL",
    "brand": "Laphroaig",
    "description": "Laphroaig 10YO is een single malt whisky van het afgelegen eiland Islay. Tijdens het maken van Laphroaig wordt gemoute gerst boven brandende turf gedroogd. Aan de rook van deze turf, die gewonnen wordt op Islay, dankt Laphroaig zijn kenmerkende rijke smaak. Zowel de geur als de smaak zitten bomvol rook. Verder is de smaak verrassend zoet met een hint van zout. Heerlijk.",
    "cost": 39.99,
    "available": 199,
    "category": "single-malt"
  },
  {
    "id": "306",
    "name": "Cardhu 12 Years 70CL",
    "brand": "Cardhu",
    "description": "Een typisch voorbeeld van een single malt uit Speyside. Een toegankelijke whisky met een mooie volle smaak in een elegante karaf met een beukenhouten stop. Drink hem puur of met ijs. Deze malt whisky gaat goed samen met parmaham, vijgen, foie gras of geitenkaas.",
    "cost": 37.99,
    "available": 199,
    "category": "single-malt"
  },
  {
    "id": "307",
    "name": "Lagavulin 16 Years 70CL",
    "brand": "Lagavulin",
    "description": "Op Islay gaat niks gehaast en dat geldt ook voor Lagavulin; voordat hij wordt gebotteld, zit de malt eerst 16 jaar in eiken vaten om ongehaast te rijpen. Lange gisting, lange distillatierondes en lange rijping verzekeren Lagavulin van een diep, rijk, turfachtig karakter. Het is een drank die de tijd neemt. De ultieme Islay malt eist niet minder.",
    "cost": 54.29,
    "available": 99,
    "category": "single-malt"
  },
  {
    "id": "308",
    "name": "The Glenlivet Founders Reserve 70CL",
    "brand": "The Glenlivet",
    "description": "Deze Single Malt whisky heeft een fruitig en romige karakter. Hij is toegankelijke van smaak en is ideaal voor de beginnende Single Malt drinker drinkers. The Glenlivet ontving in 1824 als eerste een licentie om legaal te destilleren. Dit maakt het de eerste officiële single malt. ",
    "cost": 31.49,
    "available": 199,
    "category": "single-malt"
  },
  {
    "id": "309",
    "name": "Ardbeg 10 Years 70CL",
    "brand": "Ardbeg",
    "description": "Ardbeg, opgericht in 1815, is een geturfde en rokerige Islay malt whisky. Ardbeg maakt ongetemde whiskies als eerbetoon aan het ruige eiland voor de westkust vol mythes. Je proeft het unieke leven, het gebrek aan haast en de befaamde eigenzinnigheid van Islay zelf. Ardbeg Single Islay Malt wordt gezien als een van de meest complexe en tegelijkertijd harmonieuze whisky’s. Ten Years Old is de basis van de Ardbeg range met smaken van turf, rook en drop.",
    "cost": 39.49,
    "available": 99,
    "category": "single-malt"
  },
  {
    "id": "310",
    "name": "Bowmore 12 Years 70CL",
    "brand": "Bowmore",
    "description": "Bowmore, ‘the first Islay Single malt since 1779’, heeft zich als de eerste malt distilleerderij op het eiland Islay gevestigd en is één van de oudste distilleerderijen van Schotland. Bekend om zijn karakteristieke rokerige smaak, ambachtelijk bereid volgens de eeuwenoude Bowmore traditie. De 12 years is mooi in balans met een licht rokerige smaak en een zoete toon.",
    "cost": 35.99,
    "available": 199,
    "category": "single-malt"
  },
  {
    "id": "311",
    "name": "Glen Moray Elgin 70CL",
    "brand": "Glen Moray",
    "description": "Glen Moray is een Speyside single malt whisky. Voormalige bourbon vaten worden gebruikt, afkomstig uit Noord-Amerika om Glen Moray te laten rijpen. Dit geeft de whisky zijn rijke en spicy karakter. De vaten zorgen voor een superieur product met een zachte en volle smaak.",
    "cost": 23.99,
    "available": 199,
    "category": "single-malt"
  },
  {
    "id": "312",
    "name": "The Singleton Spey Cascade 70CL",
    "brand": "The Singleton",
    "description": "No comments",
    "cost": 27.99,
    "available": 199,
    "category": "single-malt"
  },
  {
    "id": "313",
    "name": "Jura 10 Years 70CL",
    "brand": "Jura",
    "description": "Deze 10 jaar oude single malt whisky draagt het traditionele Keltische symbool voor geboorte, oorsprong en de krachten van de natuur. Om aan zijn ziltige smaak met fruit en noten te komen, wordt deze rokerige whisky 10 jaar lang gerijpt. En dan wordt een heerlijke whisky geboren met de krachten van de natuur. Waar je eindeloos van kunt genieten.",
    "cost": 33.19,
    "available": 199,
    "category": "single-malt"
  },
  {
    "id": "314",
    "name": "Glenmorangie The Original 70CL",
    "brand": "Glenmorangie",
    "description": "Glenmorangie is Keltisch voor \"Vallei van de Rust\". Gelegen in Tain, in de Northern Highlands van Schotland, zorgen de ‘Sixteen Men of Tain’ voor de productie van alle Single Malts. Deze 10 jaar oude whisky is de basis van de Glen Morangie range en wordt geproduceert in de langste distilleer-ketels in Schotland. Na rijping op ex-bourbon vaten van Amerikaans wit eiken is het een whisky met vanille, perzik en sinaasappelaroma’s. Schotlands favoriete whisky!",
    "cost": 31.99,
    "available": 199,
    "category": "single-malt"
  },
  {
    "id": "315",
    "name": "The Macallan Amber 70CL",
    "brand": "Macallan",
    "description": "The Macallan is in 1824 opgericht in Speyside en is een van de eerste distilleerderijen in Schotland met een officiële licentie. Deze non aged whisky heeft zijn naam amber te danken aan zijn amber kleur. Door lagering op Amerikaans én Spaanse ex sherry vaten onstaat een er een zachte fruitige whisky met fijne tonen van hout.",
    "cost": 53.99,
    "available": 199,
    "category": "single-malt"
  },
  {
    "id": "316",
    "name": "Caol Ila 12 Years 70CL",
    "brand": "Caol Ila",
    "description": "Caol Ila is een malt whisky die lichter en subtieler van smaak is dan de andere Islay whisky’s. En wist je al dat de whisky's van Caol Ila heerlijk zijn bij visgerechten of chorizo? Drink hem dan vooral puur of met ijs.",
    "cost": 43.19,
    "available": 199,
    "category": "single-malt"
  },
  {
    "id": "317",
    "name": "Aberfeldy 12 Years 70CL",
    "brand": "Aberfeldy",
    "description": "Dit is een mooie elegante whisky uit de Highlands in Schotland. Een prima whisky om mee te beginnen als je in plaats van een blend een malt whisky wilt proberen. Hij heeft een stevige smaak met daarin vanille. En in de lange en droge afdronk proef je nog kruiden en sinaasappel. Geniet er van!",
    "cost": 34.99,
    "available": 199,
    "category": "single-malt"
  },
  {
    "id": "400",
    "name": "Jameson 100CL",
    "brand": "Jameson",
    "description": "De drievoudige distillatie en de combinatie van pure pot still whiskey met grain whiskey, maken Jameson uitzonderlijk zacht. De rokerige smaak ontbreekt omdat er niet op turf gestookt wordt. Hierdoor is Jameson zeer geschikt om zowel puur als in de mix met bijvoorbeeld Ginger Ale te drinken.",
    "cost": 29.99,
    "available": 199,
    "category": "irish"
  },
  {
    "id": "401",
    "name": "Connemara Irish 70CL",
    "brand": "Connemara",
    "description": "De drievoudige distillatie en de combinatie van pure pot still whiskey met grain whiskey, maken Jameson uitzonderlijk zacht. De rokerige smaak ontbreekt omdat er niet op turf gestookt wordt. Hierdoor is Jameson zeer geschikt om zowel puur als in de mix met bijvoorbeeld Ginger Ale te drinken.",
    "cost": 29.99,
    "available": 199,
    "category": "irish"
  },
  {
    "id": "402",
    "name": "Tullamore Dew 70CL",
    "brand": "Tullamore",
    "description": "De oorspronkelijke Ierse whiskey, wereldwijd bekend vanwege zijn zachte en toegankelijke smaak. Het combineren van alle drie typen Ierse whiskey -grain whiskey's, pot still whiskey's en malt whiskey's - verzorgt dat zachte maar ook complexe karakter, wat Tullamore DEW onderscheidt van alle andere Ierse whiskey's.",
    "cost": 20.49,
    "available": 199,
    "category": "irish"
  },
  {
    "id": "403",
    "name": "Bushmills Honey 70CL",
    "brand": "Bushmills",
    "description": "Deze Ierse whisky valt in de categorie 'flavoured' whisky. Met een alcoholpercentage van 35% en een lekkere honingsmaak is hij zachter dan een gemiddelde whisky. Lekker om te drinken met ijs!",
    "cost": 22.99,
    "available": 199,
    "category": "irish"
  },
  {
    "id": "404",
    "name": "Kilbeggan Irish 70CL",
    "brand": "Kilbeggan",
    "description": "Kilbeggan (40%) is een traditionele Ierse whiskey. Kilbeggan wordt gemaakt in ‘s werelds oudste, werkende whiskey distilleerderij. Het recept is maar liefst 256 jaar oud en alleen het fijnste water en gerst worden gebruikt voor deze whiskey. Kilbeggan wordt twee keer gedistilleerd voor meer smaak en karakter. Kilbeggan is heerlijk puur of met ijs, maar smaakt ook goed in Irish Coffee.",
    "cost": 17.99,
    "available": 199,
    "category": "irish"
  },
  {
    "id": "405",
    "name": "The Wild Geese Rare Irish 70CL",
    "brand": "The Wild Geese",
    "description": "Deze geweldige blend whisky komt uit Ierland. En is sinds 2009 gelukkig ook in Nederland verkrijgbaar. Door de speciale dubbele distillatie krijgt hij een heerlijke zachte smaak. Wild Geese Rare Irish heeft een rijke smaak van mout met citrus en eikenhout. En een heerlijke lange afdronk met een vleugje honing. Mmm...",
    "cost": 38.99,
    "available": 199,
    "category": "irish"
  },
  {
    "id": "406",
    "name": "The Tyrconnell 70CL",
    "brand": "Tyrconnell",
    "description": "Tyrconnell is een klassieke single malt whisky uit Ierland. Zacht en lichtzoet van smaak. Hij wordt gemaakt van 100% gemout graan in traditionele koperen ketels (pot stills). En heeft een heerlijk volle fruitige geur met een citrusachtige, kruidige smaak en een subtiel droge afdroink. Drink hem puur, met ijs of met een beetje water.",
    "cost": 28.99,
    "available": 199,
    "category": "irish"
  },
  {
    "id": "407",
    "name": "Paddy 70CL",
    "brand": "Paddy",
    "description": "Paddy wordt -kenmerkend voor Ierse whisky- drie maal gedistilleerd, wat zorgt voor een zachte en pure smaak. Paddy bevat een hoog percentage aan malt whiskey, is stevig robuust met frisse tonen van noten, honing, vanille en licht geurend hout.",
    "cost": 20.99,
    "available": 199,
    "category": "irish"
  },
  {
    "id": "408",
    "name": "Wild Geese Centennial Limited Edition 70CL",
    "brand": "Wild Geese",
    "description": "Deze geweldige blend whisky komt uit Ierland. En is sinds 2009 gelukkig ook in Nederland verkrijgbaar. Door de speciale dubbele distillatie krijgt hij een heerlijke zachte smaak. Ook het rijpen op Amerikaanse bourbonvaten verrijkt de smaak. Heerlijk, even alles vergeten en alleen nog maar genieten.",
    "cost": 57.99,
    "available": 20,
    "category": "irish"
  },
  {
    "id": "500",
    "name": "Nikka from the barrel 50CL",
    "brand": "Nikka",
    "description": "Deze Japanse malt whisky wordt gemaakt door gerijpte malt whisky en graanwhisky te mengen en opnieuw in vaten te doen. Zo ontstaat er een rijke harmonie van verschillende whisky's. From the barrel wordt direct gebotteld uit de nieuwe vaten. De volle, stevige smaak komt het best tot zijn recht als je de whisky puur drinkt.",
    "cost": 36.49,
    "available": 20,
    "category": "international"
  },
  {
    "id": "501",
    "name": "Black Velvet Toasted Caramel 70CL",
    "brand": "Black Velvet",
    "description": "Black Velvet Toasted Caramel is een zachte whisky waar zoete caramel aan wordt toegevoegd. Hierdoor krijg je een perfecte balans van een warme en geroosterde smaak, in combinatie met de kenmerkende invloeden van hout. Drink deze whisky puur of als ingrediënt in een heerlijke cocktail, voor die extra dimensie.",
    "cost": 17.99,
    "available": 20,
    "category": "international"
  },
  {
    "id": "502",
    "name": "Amrut Indian 70CL",
    "brand": "Amrut",
    "description": "Een whisky gemaakt van in India verbouwd en gekweekt graan afkomstig van de voet van de Himalaya. de rijping vindt plaats op Amerikaanse eikenhouten vaten. Bij Amrut maken ze nog traditioneel whisky en laten die voor Indiase begrippen erg lang rijpen. De whisky maken ze op de traditionele Schotse manier, alleen rijpt whisky vanwege de grote hoogte, de warmte en de droge lucht erg snel, ruim drie keer zo snel als in Schotland. Deze whisky is gebotteld op 46% waardoor de smaken en aroma's nog beter tot zijn recht komen.",
    "cost": 34.99,
    "available": 20,
    "category": "international"
  },
  {
    "id": "503",
    "name": "Paul John Brilliance 70CL",
    "brand": "Paul John",
    "description": "Een whisky uit Goa, India welke gerijpt is op Bourbon vaten, de smaak is vol en zoet en de afdronk is licht droog. Hij is non-chill filtered, dat wil zeggen dat de whisky alleen gefilterd is om deeltjes uit de whisky te halen. De smaak en het aroma wordt bij deze methode maximaal behouden. De chill filtering is in de 20e eeuw ontwikkeld om whisky stabieler te maken. Dit betekent dat non-chill filtered whisky's eerder troebel worden als er water aan wordt toegevoegd. Brilliance laat je verrassen door deze Indiase whisky.",
    "cost": 51.99,
    "available": 20,
    "category": "international"
  },
  {
    "id": "504",
    "name": "Black Velvet 8 Years 70CL",
    "brand": "Black Velvet",
    "description": "Black Velvet Reserve Canadian Whiskey is een premium 8 jaar oude blend. Verwierf internationale bekendheid door haar exceptioneel zachte smaak, die licht zoeter is, door de langere rijping. Een sterke maar zachte whisky uit Canada met een neus van kruiden, pruimen, peren en hout. In de smaak herken je caramel, peper, toffee en fruit. Het rijpingsproces vindt plaats in handgemaakte eikenhouten vaten. Hij is afkomstig uit Canada en de distilleerderij ligt dichtbij de Rocky Mountains.",
    "cost": 24.99,
    "available": 20,
    "category": "international"
  },
  {
    "id": "505",
    "name": "Frysk Hynder - Golden Spirit of Frisia",
    "brand": "Frysk Hynder",
    "description": "Puur uit ambachtelijk plezier en omdat het een uitdaging was de eerste Nederlandse whisky te distilleren. Uit geselecteerde mout en voor whiskybereiding gekweekte gistcultuur wordt \"whiskybier\" gebrouwen waaruit in een distilleerketel whisky gestookt wordt. De whisky condenseert in een refluxkolom die ingesteld is op tweevoudig distilleren. In de Bolswardse whiskybereiding wordt natuurzuiver water uit de 250 meter diepe Friese ijstijdbron in Spannenburg gebruikt. De in de \"Us Heit Distillery\" gestookte whisky is een oprechte, \"bjusterbaarlike Bolswardse single malt whisky\" die met de ondertitel \"Frysk Hynder, golden spirit of Frisia\" verwijst naar het adellijke Friese paard met overeenkomstige uitzonderlijke eigenschappen.De smaak van de whisky in het distillatieproces wordt gestuurd door beproefde verhoudingen tussen voorloop, naloop en terugloop. De gerst wordt op ecologische wijze in Nederland geteeld. De geproduceerde whisky ondergaat een jarenlange kwaliteitsverbeterende lagering in voor dit doel uitgezochte, reeds meermalen gebruikte, eikenhouten sherry-, cognac-, wijn- en refillvaten. De whisky wordt daarna ongemengd (unblended) en zonder diepkoeling en filtratie rechtstreeks uit de lagervaten afgevuld, waardoor het in het stook- en lagerproces verkregen waardevolle whisky aroma behouden blijft. Bij koud serveren kan hierdoor de helderheid wat verminderen. In 2002 zijn de eerste batches whisky gestookt en op vat gelagerd. Deze botteling (batch) heeft gerijpt op een rode wijn vat uit de Bordeaux, fust nr. 162. Na ruim drie jaar rijpen in gebruikte eiken houten vaten is het moment aangebroken om de whisky te proeven. De volgende voorraad ligt al te rijpen. De whisky wordt op de Schotse manier gemaakt. Dat wil zeggen dat de drank twee destillaties ondergaat en vervolgens drie jaar in gebruikte vaten wordt opgeslagen.",
    "cost": 47.95,
    "available": 20,
    "category": "international"
  },
  {
    "id": "506",
    "name": "Millstone - Dutch Single Malt Whisky",
    "brand": "Millstone",
    "description": "Wat de whisky betreft, was het eerst een beetje zoeken. Wat is lekker, wat ziet er goed uit. De vaten waarin de whisky moet rijpen, zijn het belangrijkst. Goed hout moet het zijn, want daar komt de smaak van, dat geeft de whisky body. In Schotland gaat negentig procent in één keer gebruikte bourbonvaten en die worden dan ook nog eens drie keer gebruikt. Zo'n vat werkt echter op een gegeven moment gewoon niet meer. Denk maar aan een theezakje, dat kun je ook niet blijven gebruiken. Zuidam werkt nu met drie verschillende vaten: sherry, bourbon en nieuw Amerikaans eiken. De laatste heeft voor kenners een number three char. De binnenkant van de vaten wordt eerst getoast, op een heel laag vuurtje. In Amerika worden ze dan op hoog vuur gecharred. Dat gaat tot categorie 'four', de zwaarste variant. Die van Zuidam noemen ze ook wel alligator char. Als je een vat zou doorzagen, zie je aan de binnenkant door het branden een soort schubben. Maar uiteindelijk gaat het om de goede balans, want hout mag niet gaan overheersen. Min of meer als voorbeeld gelden voor de broers de whisky's van de Speyside in Schotland. Millstone - de gerst daarvoor wordt onder meer gemaald in de molen van Ulvenhout, de windmolens malen het gerst dat wordt gebruikt om deze mout whisky te produceren. Bij het gebruiken van windmolens voor het malen van hun gerst geeft de distilleerderij zo steun aan de belangrijke Nederlandse erfenis van de wereld beroemde windmolens - is in 2002 gelagerd en sinds enige tijd worden de whisky's mondjesmaat verkocht. Overigens is slechts de helft, zo'n vijf- tot zesduizend flessen, gebotteld. De rest blijft in de vaten tot de leeftijd van tien jaar is gehaald. Het etiket van Millstone vermeldt ook het nummer van de fles en uit welk vat de whisky komt. Gedistilleerd bij een zeer lage temperatuur om deze whisky zijn fruitige aroma's te geven in een kleine 850 liter still, de kleine ketel geeft een zeer gevoelige en fruitige nieuwe spirit aan de whisky, en gerijpt op zowel Amerikaas, Europees en Olorosso vaten.",
    "cost": 43.95,
    "available": 20,
    "category": "international"
  },
  {
    "id": "507",
    "name": "Hakushu - 12 Years Old",
    "brand": "Hakushu",
    "description": "De ligging van Hakushu in de “Japanse Alpen” is geweldig. Slechts op drie uur met de sneltrein vanuit Tokio. Achter de distilleerderijen zie je de granieten hellingen van Mount Kai-Komagatake liggen en aan de overkant sluimert de actieve vulkaan Mount Yatsugatake. De distilleerderij van Haushu licht op 700 meter boven zeeniveau d.i. tweemaal hoger dan de hoogstgelegen distilleerderij in Schotland. De lucht is zodoende zeer schoon en koud. In de zomer stijgt de temperatuur tot maximaal 28° C. Dit gebied is daarom een zeer geliefd oord voor de mensen uit de steden die verkoeling zoeken. Ondanks de grootte van het terrein van de Hakushu distilleerderij – zo’n 850.000 vierkante meter – lijkt Hakushu samen te smelten met de prachtige groen bossen. Meer dan de helft van het terrein is een natuurreservaat en het bijzondere zachte water wordt behalve voor de procuctie ook gebotteld en verkocht als verdunner voor de single malt. In het ketelhuis van de distilleerderij staan zes wash stills en vijf spirit stills die op één na direct verhit worden. Ze zijn ook allemaal verschillend van vorm, type en omvang. Men produceert een indrukwekkend aantal verschillende spirits, wat precies de bedoeling is. Deze variatie is voor Hakushu zeer belangrijk daar Suntory een grote variëteit nodig heeft voor haar uitgebreide serie blends. Er worden twee soorten gerst ingevoerd, ongeturfd en zwaar geturfd. Het schroeien van de eikenvaten wordt op de distilleerderij ook uitgevoerd. In 1988 stookte men de eerste pure Hakushu malt whisky. Deze 12 jaar oude malt whisky is de ideale introductie tot de Hakushu stijl. Helder en clean met lichte tonen van bloemen, iets zoetig en iets olieachtig. Licht maar evenwichtig.",
    "cost": 69.95,
    "available": 20,
    "category": "international"
  }
]