{
  "port": 4000,
  "consul": {
    "host": "127.0.0.1",
    "port": 8500
  },
  "services": {
    "orders": {
      "development": true
    },
    "returns": {
      "development": true
    },
    "metrics": {
      "development": true
    }
  }
}
